[api-updater (non-obsolete-error-filter)] 2/7/2022 6:18:12 PM : Starting D:/unity/2020.3.24f1/Editor/Data/Tools/ScriptUpdater/APIUpdater.NonObsoleteApiUpdaterDetector.exe
[api-updater (non-obsolete-error-filter)] 
----------------------------------
jit/startup time      : 1754.7373ms
moved types parse time: 55ms
candidates parse time : 1ms
C# parse time         : 1015ms
candidates check time : 37ms
console write time    : 0ms

[api-updater (non-obsolete-error-filter)] 2/8/2022 2:32:37 AM : Starting D:/unity/2020.3.24f1/Editor/Data/Tools/ScriptUpdater/APIUpdater.NonObsoleteApiUpdaterDetector.exe
[api-updater (non-obsolete-error-filter)] 
----------------------------------
jit/startup time      : 1714.2832ms
moved types parse time: 79ms
candidates parse time : 1ms
C# parse time         : 611ms
candidates check time : 28ms
console write time    : 0ms

[api-updater (non-obsolete-error-filter)] 2/8/2022 2:44:23 AM : Starting D:/unity/2020.3.24f1/Editor/Data/Tools/ScriptUpdater/APIUpdater.NonObsoleteApiUpdaterDetector.exe
[api-updater (non-obsolete-error-filter)] 
----------------------------------
jit/startup time      : 600.1231ms
moved types parse time: 47ms
candidates parse time : 1ms
C# parse time         : 154ms
candidates check time : 21ms
console write time    : 0ms

[api-updater (non-obsolete-error-filter)] 2/9/2022 3:19:55 AM : Starting D:/unity/2020.3.24f1/Editor/Data/Tools/ScriptUpdater/APIUpdater.NonObsoleteApiUpdaterDetector.exe
[api-updater (non-obsolete-error-filter)] 
----------------------------------
jit/startup time      : 1641.9293ms
moved types parse time: 63ms
candidates parse time : 1ms
C# parse time         : 819ms
candidates check time : 38ms
console write time    : 0ms

[api-updater (non-obsolete-error-filter)] 2/10/2022 3:18:09 AM : Starting D:/unity/2020.3.24f1/Editor/Data/Tools/ScriptUpdater/APIUpdater.NonObsoleteApiUpdaterDetector.exe
[api-updater (non-obsolete-error-filter)] 
----------------------------------
jit/startup time      : 2068.0972ms
moved types parse time: 51ms
candidates parse time : 1ms
C# parse time         : 726ms
candidates check time : 42ms
console write time    : 0ms

[api-updater (non-obsolete-error-filter)] 2/11/2022 2:24:31 PM : Starting D:/unity/2020.3.24f1/Editor/Data/Tools/ScriptUpdater/APIUpdater.NonObsoleteApiUpdaterDetector.exe
[api-updater (non-obsolete-error-filter)] 
----------------------------------
jit/startup time      : 1958.3907ms
moved types parse time: 53ms
candidates parse time : 1ms
C# parse time         : 710ms
candidates check time : 30ms
console write time    : 0ms

[api-updater (non-obsolete-error-filter)] 2/11/2022 2:25:36 PM : Starting D:/unity/2020.3.24f1/Editor/Data/Tools/ScriptUpdater/APIUpdater.NonObsoleteApiUpdaterDetector.exe
[api-updater (non-obsolete-error-filter)] 
----------------------------------
jit/startup time      : 64.0142ms
moved types parse time: 49ms
candidates parse time : 1ms
C# parse time         : 187ms
candidates check time : 27ms
console write time    : 0ms

[api-updater (non-obsolete-error-filter)] 2/11/2022 2:25:48 PM : Starting D:/unity/2020.3.24f1/Editor/Data/Tools/ScriptUpdater/APIUpdater.NonObsoleteApiUpdaterDetector.exe
[api-updater (non-obsolete-error-filter)] 
----------------------------------
jit/startup time      : 65.0151ms
moved types parse time: 56ms
candidates parse time : 1ms
C# parse time         : 186ms
candidates check time : 27ms
console write time    : 0ms

[api-updater (non-obsolete-error-filter)] 2/16/2022 2:46:57 AM : Starting D:/unity/2020.3.24f1/Editor/Data/Tools/ScriptUpdater/APIUpdater.NonObsoleteApiUpdaterDetector.exe
[api-updater (non-obsolete-error-filter)] 
----------------------------------
jit/startup time      : 1933.853ms
moved types parse time: 47ms
candidates parse time : 1ms
C# parse time         : 770ms
candidates check time : 49ms
console write time    : 0ms

[api-updater (non-obsolete-error-filter)] 2/17/2022 12:03:22 AM : Starting D:/unity/2020.3.24f1/Editor/Data/Tools/ScriptUpdater/APIUpdater.NonObsoleteApiUpdaterDetector.exe
[api-updater (non-obsolete-error-filter)] 
----------------------------------
jit/startup time      : 1889.6782ms
moved types parse time: 57ms
candidates parse time : 1ms
C# parse time         : 630ms
candidates check time : 40ms
console write time    : 0ms

[api-updater (non-obsolete-error-filter)] 2/17/2022 12:03:35 AM : Starting D:/unity/2020.3.24f1/Editor/Data/Tools/ScriptUpdater/APIUpdater.NonObsoleteApiUpdaterDetector.exe
[api-updater (non-obsolete-error-filter)] 
----------------------------------
jit/startup time      : 68.0149ms
moved types parse time: 50ms
candidates parse time : 1ms
C# parse time         : 181ms
candidates check time : 40ms
console write time    : 0ms

